1.95762783230223;1.52053750836738;1.83246982538615;2.08939179396123;0.243812030486635;1.47159070383765;53
1.07942629854621;1.1158809567641;1.10972241021567;0.167705929787692;0.056628134340546;1.1728392613179;44.4
0.135466666488244;0.180572611790933;0.177222068151521;-0.274994782666435;0.276921110091082;0.880186006406472;11.2
0.56756825720549;-0.617830579956443;0.679390311064063;0.321905054350365;-0.438718128660454;-0.336768849245432;11
-0.204338870557715;-1.52285044225561;-0.523622616969147;0.167705929787692;-0.61698965804559;-1.48421826724988;13.2
-0.285514898884718;0.708806172704136;0.217832612265671;-0.0047318009060512;-0.271904446984282;0.19854374061061;28.2
-0.304469238266122;0.929303903492254;0.0660867119134628;-0.813864349139484;0.507402376519484;0.668010293141656;29.8
0.0543940511065311;1.05772828156933;-0.561232229067792;0.658488582168626;0.653839476839924;0.852138733225261;18.8
1.29777489821192;0.871151228297478;1.55694857331235;1.09787318441711;0.818106404190919;0.841165409832463;41.8
0.803708584049496;1.07468983186677;0.985947058494076;0.0400356868702091;1.48535476400979;1.3069737814347;31.2
-0.603940592923382;-0.505158635948464;-0.229581715281884;-0.878528498149637;-0.44508374109623;0.181473449003125;5
0.90100606380208;0.763323018438725;0.75911190320446;-0.404324738741846;1.38348586437993;0.724101181323151;39
-0.927422553241602;-1.08548354090372;-1.65004485413735;-0.863604344169115;-0.799081318918491;-0.757460875452609;7.6
-0.189480310554918;0.528284392888472;-0.0215183887666961;0.310298668630595;-0.148385588836098;0.822872066401111;68.5
-1.58070406471757;-1.66096471170975;-1.4044359302336;-1.5948066445147;-1.7019082739476;-2.01953451528686;0.2
-1.00323834390441;-0.456694640591448;-0.653529801981632;-0.662979676727356;-0.590248737631245;-0.559920324690332;5.2
-1.17508715603421;-0.981292372044463;-1.14474764978912;-0.550233587790397;-1.34918025315644;-0.639179692087645;7.2
0.165589603960962;-0.136849475093297;0.122406077916143;0.195892866535708;1.24214099933267;-0.875742058817574;19.4
1.61620215911339;0.461650942544975;1.16898063336346;2.09270624611177;1.5744924387681;-0.451391851681583;60.4
0.899741605516488;1.0553039914161;0.834201158141868;1.59529137331954;1.44715472250932;0.919205383586839;41
-0.639321921977815;-0.86256030842307;-0.910089120990431;-0.890134883869409;-1.09959960266639;-0.666006352232276;14.2
-1.22310523363051;-1.10729367150762;-1.15569804489417;-1.47376862200851;-1.17472758188191;-0.709903303984393;15.8
-1.34188283561007;-1.33025446170679;-1.25581899131708;-0.325323387257568;-1.05351098964368;-1.53897391939236;0
