0.0900574904370666;0.0346700746973842;0.628938959507065;0.982647784907701;0.236680331379713;0.160583918141353;13.6
2.31269935958749;0.1087871842951;-0.064267110069098;2.29633049378485;0.452005047356992;0.359628289426039;38.4
0.350262130448791;0.615845896926956;1.28534907285156;-0.584828166342402;1.16480410714384;0.443283764014909;14.7
0.261589040835858;0.0264335435634883;0.0502573833273797;0.93267787205752;0.261925298080498;0.730310000469352;36.3
-0.796673405692271;-0.637095919397697;-0.803183722442908;-0.640060700014331;-0.63649851685918;-0.782706943281383;44.8
-0.456519072965436;-0.193566157849596;-0.44606428517454;-0.24030008221517;-0.205849084904623;1.23362893841191;42
-0.614966254846095;-0.442978707424495;-0.612309566782111;-0.465164690040988;-0.0944742318129288;0.066775107741115;17.2
0.00283805803090306;-0.351212721868956;0.0353814151317999;-0.398099807005217;-0.416717321760193;-0.609626280993289;10.9
1.58732295975235;1.71613179269825;1.70069123556945;1.48103191570294;1.67415695028516;1.53836672754206;51.9
0.119130634572455;0.183188764946855;0.158921276648448;0.0555744017661698;-0.183574114286284;0.0441022456518525;11.3
-0.271903154048515;-0.0509294537021197;-0.252381988935663;-0.112745304676548;-0.490967223821324;0.0296779628759693;25.9
0.907012840641474;0.622012354082992;0.986452361032718;0.463222375809421;0.956905866370719;0.525842885802585;14.6
0.821247065442078;1.2008365489325;0.896556741689463;1.01552272757229;1.06530923838193;1.32345832795953;28.2
-0.110547204097111;-0.735636692517142;-0.0824429106677409;-0.766299164848663;-0.554823624591936;-0.814091607156301;33.6
-1.13537553486954;-1.03681422097181;-1.15749349213995;-1.00036875662057;-0.793908309228776;-0.315041827674508;31.8
0.420036222716516;0.19730582335683;0.474170559131064;0.110804305442687;-0.027649319957911;-0.253021882997587;43.6
0.10604771971153;-0.0474005538061053;0.144143036020567;-0.114061617380838;0.166885423442251;-0.260233130133651;39.9
-0.277716329218386;-0.141518166741709;-0.258538825700656;-0.215315125790079;-0.165755622789654;0.146508393597496;11.8
-0.899881613715692;-1.14857925103931;-0.912435508163412;-1.10162358002751;-0.908254643400958;-0.98861559197386;25.9
-0.572808742192576;-0.919165745976384;-0.568863554967223;-0.901743928626788;-0.715203413043978;-0.772263869861867;8.2
-0.0567633411038493;0.0114236836916047;-0.0257960422473525;-0.0825003574251218;0.104515505710901;-0.302060867428088;34.5
-1.1426452745606;-1.17799064037521;-1.16734565255854;-1.12792353415919;-1.08199792922596;-1.20785038213728;21.2
-0.992918582263348;-1.07563795513163;-1.00972024782061;-1.03587369469833;-0.99586804283505;-1.56122474235328;33.4
0.511618080400195;0.331424442968206;0.570224542232558;0.23178409444839;0.125305478288018;-0.0179194875288201;61.1
-0.0175131428638687;-0.0415171088781919;0.0148418289894521;-0.103540320730461;0.232225337256045;0.244586362458495;23
0.0231892589256748;0.304364681012373;0.0579427403309064;0.205484140316715;-0.014284337586907;0.507092212445813;30.4
-1.36650703074588;-1.52740278898771;-1.40255147611649;-1.44615297915245;-1.25425621700974;-1.06367372901733;3.7
-2.20817309980816;-2.47916853568362;-2.28549867236544;-2.30221780113617;-2.49571457947184;-2.85085041321634;1.2
0.0653467715791937;0.819659924778125;0.101042124679113;0.657843351381519;0.159460433236138;0.446515590298358;30.8
-1.04379513084307;-0.75563719585503;-1.06267331958065;-0.75840917860916;-0.949834588555191;-0.495333737098666;20.4
-1.60635901620562;-1.17803732280459;-1.65376629685802;-1.13975719852074;-1.45770243365528;-1.64205438101086;23.5
0.0188282873053664;0.10671711031724;0.0530166601216113;0.0292744476344947;0.33172020601796;0.308049629664882;37.2
-1.83894562294594;-1.84627441700366;-1.89882428083456;-1.82750362905944;-2.39325268462357;-1.80497991898383;2.2
1.21373451126982;1.66083645509656;1.30786000727357;1.38898207624207;1.00887931281547;0.684501053818548;48
1.26025008822923;1.47730740163731;1.35711775538002;1.2653722918232;1.60584852538696;1.24268592142208;51.4
1.66727555978187;1.27377784484019;1.78566077470341;1.08127261290148;1.4707137036357;1.64942744515323;83.7
0.828516805133132;0.615189425263788;0.902763969231552;0.486893649525634;0.679209747664051;0.880658780044302;50.4
1.6658219025751;1.550248697545;1.78319773459877;1.31928719779314;1.62515498492089;0.543152025133649;52.8
-0.28498606890944;-0.276812600043119;-0.265927946014597;-0.332349921676031;-0.238519041811522;-0.607835988735551;8.8
0.837237294716542;1.73142612362418;0.91256726586629;1.49418189276877;1.03115576843185;1.84414363735328;24
0.938993299190401;1.18789530421256;1.01970111195558;1.00500274591962;1.5033836605426;0.934025943559446;39.9
-0.314057759387621;0.2878930775705;-0.296713656832816;0.193649160957461;0.218860354885041;0.462379618596201;14.8
