2.68564018195252;2.35472976224174;2.24274111714633;3.27869241796665;1.12232075947788;1.48466059621867;81
1.91116729712839;1.56058147409085;0.820121928647172;1.2309378165856;0.529820866722088;1.48466059621867;55
-0.982455682919621;-0.919264082924113;-0.779827492995676;-0.95718705989011;-0.613928422658839;-0.850288330290257;17.2
-0.77505722063417;-1.69468367783182;-0.692449777152405;-1.20386820781585;-0.73781915562994;-0.861869104801634;6
-0.652154710389861;-0.780661264157044;-0.72152652394084;-0.820945322298227;-0.430544732830238;-0.707163665768018;2.6
-0.323695865819154;0.318160745664508;-0.576236090811257;0.454772766062142;-0.398782760161981;-0.592267776600447;14.8
-0.781509430972652;-0.580876465822684;-0.616236556931917;-0.275979404065066;-0.652017498498419;-0.534755573711727;7
1.74107049726922;1.23342932480742;2.25633293874829;0.477478690193081;2.09804020517198;2.6403880293474;25.2
-1.03659367099441;-0.602103733316131;-0.75706058987166;-0.894226862972649;0.169562460706887;0.246741691214313;48.8
0.336906079240365;-0.503460621274081;-0.542206876696421;-0.487565918948389;-0.788418930643894;-0.0888620959115908;1
-0.956646841565695;-1.31009678602509;-1.02278882838986;-1.15019722027966;-1.19744419833575;-1.20754206631333;42.2
-0.58179189932929;0.393079264625646;-0.548274439218467;-0.0231054498851473;-0.621078205537369;-0.653137730915223;27.3
0.217076322251436;-0.66328821020901;-0.428130079933969;0.500186678592771;-0.853687695808475;-0.635041368278192;18.4
-0.783044855103982;-0.990439110829643;-1.24366194882903;-0.224372685280261;-1.5263057934871;-1.37369976324846;6.2
-0.531094328104605;-0.444772221305874;-0.384439717160518;-1.06040152959409;0.0263309398696189;-0.296147147950447;6.8
0.355340693779924;1.10481705705301;1.32308102684428;0.371169881630759;1.47584001203663;0.671183094897548;13.4
1.03898733575843;1.13977961527751;0.259975451739051;1.12772437901599;-0.472116344010692;0.14639061836982;36.6
-0.0609916549223082;0.14459661733573;0.520898698408813;-0.173797068736778;0.646239280901815;0.177646673868027;13.4
0.410646442391319;0.555406676473627;1.09249860248838;0.370136715120687;1.49646526010196;0.551089422842009;109.4
-0.329841372329914;-0.294932686058008;0.972354243203887;0.182289290878375;1.33260849119936;0.48363860212355;41.2
-0.707767162828979;-0.382340330282056;-0.584682824054373;-0.317263746958534;-0.7058724707649;-0.957485462542919;7.8
-0.151633113474209;-0.308669225451855;-0.453614745437651;-0.752824453502285;-0.815874267401017;-0.384982724561591;30.6
-0.0425570403827495;0.671007877917355;-0.136867515802163;0.348346294180992;0.916662199580379;1.25684348579386;11
