1.2444104939387;-0.582286594414119;0.822868713329502;0.544678549372863;-0.0938942250960923;0.871198848449513;18.8
0.246980426909629;-0.374562733207486;0.222426808701014;-0.251904574786692;-0.252585816960025;-0.143852652512005;14.6
-0.682892763322274;0.119058402306542;-0.797238607912896;-0.753359153244145;-0.277884476532536;1.00155012153138;29.6
0.260888786592585;0.983459929304694;0.209324026982987;0.731254911084083;0.556968989482185;-0.271427779887296;20
2.99090308841272;0.382622011149368;2.91459757283114;2.50478810309211;0.455774351192142;0.380311945288059;32.6
-0.666995508204656;-0.879354051838659;-0.694615071247513;-0.786986971508475;-0.960948284990333;-1.25042821387596;17.2
1.12122216531824;-0.497410178007107;1.07614913027214;0.701216606550314;-0.436576068396469;-1.122855859873;8.6
-0.514003551692142;-1.13398330105969;-0.397670360221038;-0.650849888685064;-1.58421526173129;-0.662476052388246;28
-1.23525353227909;-0.727472171858124;-1.37366558748188;-1.31471894516127;-0.983949366298031;-0.529351406972127;17.6
-0.194113265892684;1.00802941826462;-0.105088148423461;0.106395494959367;0.770859956655194;0.893388600495811;43.2
-1.20544732140595;-0.863718922500526;-1.0417828908892;-1.14071812405042;-0.825255474555955;-1.41683055393069;16.8
-0.00336806047504978;-0.394667275946422;-0.0636051039540742;0.181481462259055;-0.135294331547435;0.133484580912546;20.4
0.324469859428954;1.3117954118156;0.333781894123335;0.722763482968407;1.80350294296409;-0.659702680054002;31.1
0.739735728300018;0.516639639066132;1.21807009492637;0.778427879387605;0.356881890923196;0.776906962457499;51.8
-1.59687306963532;-2.63048853770963;-1.55925543142934;-1.98887957333753;-2.45127162150367;-2.27935212325337;3.6
-0.827937085730242;-0.432638304339031;-0.982829325233574;-1.07460349256845;-0.3284840955557;-0.387909417925609;3.4
-0.122582572043243;1.65130331103355;-0.057054804811585;0.268809972978116;1.29753205139201;1.67270622641879;23.8
0.499319796637496;0.255309620128755;0.456054144783139;0.414251388800248;0.165989705179742;0.968266880148105;30.2
-0.410684308333041;0.744465809421795;-0.631297696303163;0.220819202774179;0.209689689774041;0.286020059296047;8.8
-0.118610741899495;-0.0640937363502603;0.102335807655659;0.214781180359746;0.416681022518183;-0.163266258851723;7
-0.0788705844682386;-0.707367629119189;-0.0919897335715289;-0.608084236012516;-0.307782892390958;-0.532124779306374;6.6
0.998031849789243;1.07503711542805;1.11326530864654;1.59296346921733;1.81960208996478;0.940535930177983;39.6
-0.768329829946146;1.24032276843118;-0.672780740772548;-0.412526744448845;0.784659225512927;1.49520762365475;9.6
