3.87310161234347;3.1934160711501;3.77090489892111;2.89846212801321;4.04961260503426;4.05344862846898;108.1
-0.240182136250372;0.112032681628505;-0.122982202537496;0.244210633699782;-0.373732248307515;-0.833433371425211;5.8
0.277207011229793;0.141537250289394;0.330865021156801;0.311835610639225;3.51497891568917;3.25672737894939;57.7
-0.946634120562941;-0.704260999334603;-0.524887744992032;-0.600358078905486;-0.990279717689071;-1.08275767566408;0
-1.04716030912876;-1.45416817145368;-1.40618584260232;-1.53607177379914;-0.78183767104469;-1.00684490499962;2
1.23728054364648;1.42744408641462;0.874969811575056;1.62168703922273;0.677982177517725;0.496060391977668;63.8
1.66705364377011;1.4514165484516;1.92401143275652;1.49305323535778;0.952979170441728;1.18692357337927;75.5
-0.678293250330672;-0.762654843464099;-0.663681863834349;-0.847333571037668;-0.547067657848949;-0.518645602140592;7.4
0.0250973071046496;0.0708498358845281;-0.0960061889180574;0.04427809244992;-0.0972732406844684;-0.145355232223635;3.6
0.448674362842423;0.785719718040289;-0.0593237095581407;0.612467998529339;0.173335514023296;-0.120980019170152;19.3
-0.20458175571667;-0.103104798190477;-0.457891697546708;-0.0777395614010991;-0.243547847892429;-0.384233713017095;25.9
-0.424080459157617;-0.445480115681028;-0.474990197079104;-0.414390678652705;-0.384702843848112;-0.395375274686513;6.8
0.0481912385051502;0.10588589649082;-0.135038999262235;0.027371296930478;-0.0826450485906363;-0.171123314594461;8.4
1.75474288175801;1.91488476251157;1.78709251060246;1.80838875053694;1.00856352118075;1.09638706775204;103.2
-0.739678461570875;-0.629884899168612;-0.501284129020271;-0.627554784884328;-0.586560339049026;-0.412091099363934;1
-1.27381454038851;-1.19354448161583;-0.977474279020917;-1.27072012897855;-0.928112278252651;-0.726878868648553;2.3
-0.67777634149671;-0.573949154415677;-0.813067254061714;-0.548904851377948;-0.547067657848949;-0.618235061895882;24.4
0.233786669176995;-0.0711415154745137;0.5138350151341;-0.111551682347767;0.0358366518747757;0.256486869394855;0
-0.787487954297889;-0.240793399953139;-0.50373582198768;-0.0880302069066069;-0.617278737935734;-0.4148754451293;16.4
1.02416543558424;0.903738607362358;0.929500446801072;0.785204568846468;0.541216151151318;0.530184993817887;89.8
-0.371511288185139;-0.72884752520683;-0.689600967608663;-0.770152994700254;-0.350328311154241;-0.537448641490049;21.9
1.164422700941;1.41084776654287;1.12204070135399;1.54377141677778;0.63117576595725;0.657633929223992;63.2
-0.943608145397757;-0.978407001796849;-1.25690075850411;-1.08254832544927;-0.716744739464112;-0.910738314972347;8.1
-0.978506353311874;-1.15543441376218;-0.7246141418086;-1.09063309758606;-0.738686661918342;-0.55973455056752;38.4
0.190478400278463;0.493748038678756;0.0575698858001105;0.344176169278605;0.00804447650526342;-0.0443735995856622;64.1
-0.76834174257623;-0.988242472695659;-0.515963667058982;-1.0061035302655;-0.604844664950021;-0.42253692280934;12.2
0.0159862171042639;0.0935917115369356;0.62033900721961;0.0112010176107884;-0.103123493599751;0.326827466355282;3.3
-0.495942223114468;-0.6415631762517;0.244557404213668;-0.579776787894471;-0.43077934511862;0.0795917696577704;11.1
-0.0801508207873411;0.0628584005270236;-0.392190127094513;0.160414642394541;-0.163826724218019;-0.339661198427494;43.8
-0.662059797016316;-0.369875273166014;-0.773183425400684;-0.4364427969249;-0.536826972598319;-0.591073413773055;9.9
-0.804125099688326;-0.805682339427895;-0.224514178178764;-0.723110043817933;-0.627518691813328;-0.232409564557506;3.6
-0.211037398123119;-1.05032500258628;-0.992972103902756;-1.17810358438288;-0.247936086108668;-0.737324692093959;0.5
0.317750046587353;0.382491842365167;0.590536472465911;0.542639353359503;0.0899597192877934;0.307327295912495;23.4
-0.204471969769634;0.401545646934964;-0.107859205822508;0.499271633014863;-0.242084370447314;-0.153712448127687;68.3
-0.552274993583779;-0.99623329337465;-0.780676821175749;-1.1501718322965;-0.466615892511534;-0.596645587477082;8.6
0.520721390584898;0.759903220462011;0.0217384247570465;0.836657061327898;0.219412015293803;-0.0680523779804749;2.3
-1.10909902451861;-0.642178469443983;-0.756425966707424;-0.455553260674736;-0.822794561062919;-0.580626893892991;0
0.411968117613055;-0.355737667349338;0.0976923374631364;-0.441588119677654;0.149200935207018;-0.0179083861215068;27.2
0.166462724364305;0.0511788940869078;-0.0183840269059787;0.0207573520548667;-0.00731362587853628;-0.0945168950099718;12.7
1.54269704307575;1.74584817122523;1.52401487431795;1.70695165265083;0.873259509513389;0.922974837742972;47.5
0.385038539687979;0.662784629965099;0.845950720482777;0.86752899784442;0.133110728414142;0.476560221534881;19.1
-1.10400770122481;-1.28021476673571;-1.28578364443153;-1.34348895857854;-0.819138427255757;-0.929541354321805;3.3
