0.583408434463611;1.03153923771854;1.4009141754216;-0.12647038761186;0.865929650190817;0.676217344878229;50.4
-1.04048889993105;-0.890497533653001;-0.780430232696092;-1.18353577828071;-0.689708418738206;-1.08130163091349;21.4
0.819173118959524;0.32403133496961;0.293380753035837;0.753334597670077;0.653714196033078;0.762654399154366;12.7
0.275669034288998;0.0537056058272084;0.252909242432921;0.115485938641032;-0.393702619615996;0.34572751093574;5.1
-0.642905636191054;-0.50376303880925;-0.90453603025108;-1.08668906992092;-0.277778098338761;-0.725389632422423;3.3
-0.861715103940722;-0.605945359911165;-0.332559095344695;-0.684290030151975;-0.640130497982389;-0.830467912556547;20.6
0.427708761399957;-0.208860832365834;-0.236781061902592;0.332246656176131;0.372161001116439;0.220313193973723;55.4
1.31068444200796;1.48165442519448;1.37393136967914;1.29233775599514;1.61008509351777;1.30329909855413;49.2
1.41797742506061;1.22555384722078;1.25656925005169;1.78204767952629;1.86468326686924;1.16771083133977;51.6
0.455852774856256;0.756037198794615;1.03533236665185;0.155048108966212;0.202937470861346;0.733839223044037;7.6
-0.508032195373785;-0.850401181022536;-0.683301844862016;-0.316941379923542;-0.670621833969002;-0.472864492717514;14.2
-1.17465947915533;-1.00173516329575;-0.881605636689919;-0.790543047551262;-1.42069369780239;-0.921989399742399;23.2
-0.836948203243541;-0.787024368682532;-0.677904474310293;-0.772824545977892;-0.972480023072682;-0.70166566846569;42.4
-0.44295312181011;-0.366659381427662;-0.315022025319098;-0.896861789263607;-0.194966505684414;-0.488117791446661;19.4
-1.06736649610268;-1.09874246804687;-1.17838412372771;-1.19487708841937;-1.04413200994804;-1.08130163091349;16.8
0.378459903894647;0.651269309663401;-0.230033336958896;1.15219032373795;0.116040730714462;0.467753900768917;51.2
1.71347479148342;1.26435676912123;1.70309003301111;1.47114654887499;0.937764581423212;1.6405647867543;37.2
0.753108350609282;0.0200751134160886;-0.0425242862344424;0.754299198617612;-0.0669036263180715;0.581307930563536;51.6
1.86122347469482;2.43879187197484;2.02415331501819;1.60323888664644;2.24886641663756;2.05918309632089;60.6
-0.105241845898326;-0.10667851126392;-0.167980438181402;0.560992395504257;0.212084688712972;-0.118649000007322;28.6
-1.29426625960591;-1.31991782944871;-1.18647815604721;-0.86947794753457;-1.42831515971636;-1.35077488031745;3.8
-0.870368955385961;-0.226967569155314;-0.317721385097653;-0.937135328624244;-0.486151720998817;-0.850809033817349;7.8
-1.15179431508062;-1.27982147681824;-1.40501837767927;-1.1127216970962;-0.798682883891775;-1.3352402429673;17.2
